Daten Typen & Vektoren & For Loops – rstatsZH - Data Science mit R
…
20
Employed
10

21
Employed
0

22
Employed
5

Atme tief durch und schau dir deine Daten an

# A tibble: 22 × 3
      id job      price_glass
   <int> <chr>    <chr>      
 1     1 Student  0          
 2     2 Retired  0          
 3     3 Other    0          
 4     4 Employed 10         
 5     5 Employed See comment
 6     6 Student  5-10       
 7     7 Student  0          
 8     8 Retired  0          
 9     9 Student  10         
10    10 Employed 0          
# ℹ 12 more rows
…
Respektiere deine Daten Typen!

Den Durchschnitt von einem Vektor mit Typ “character” zu berechnen ist nicht möglich.

survey_data_small |> 
  mutate(price_glass_new = case_when(
    price_glass == "5-10" ~ "7.5",
    price_glass == "05-Oct" ~ "7.5",
    str_detect(price_glass, pattern = "2chf") == TRUE ~ "2",
    str_detect(price_glass, pattern = "See comment") == TRUE ~ NA_character_,
    TRUE ~ price_glass
  )) 

# A tibble: 22 × 4
      id job      price_glass price_glass_new
   <int> <chr>    <chr>       <chr>          
 1     1 Student  0           0              
 2     2 Retired  0           0              
 3     3 Other    0           0              
 4     4 Employed 10          10             
 5     5 Employed See comment <NA>           
 6     6 Student  5-10        7.5            
 7     7 Student  0           0              
 8     8 Retired  0           0              
 9     9 Student  10          10             
10    10 Employed 0           0              
# ℹ 12 more rows
…
