rstatsZH - Data Science mit R – Mit Text Daten arbeiten & KTZH Corporate Design mit statR
…
1’000

1.0 mio

50’000

Datenquelle: Weibliche Vornamen & Männliche Vornamen

Vornamen Statistik

Frage: Wieviele einzigartige Vornamen gibt es in der Schweiz?

vornamen

# A tibble: 976,068 × 4
   vorname  geburtsjahr  wert geschlecht
   <chr>          <dbl> <dbl> <chr>     
 1 Olivier         1915     1 m         
 2 Florian         1917     1 m         
 3 Max             1917     1 m         
 4 Albert          1918     1 m         
 5 Co              1918     1 m         
 6 Julian          1918     1 m         
 7 Victor          1918     1 m         
 8 Alfred          1919     1 m         
 9 Valentin        1919     1 m         
10 Walter          1919     1 m         
# ℹ 976,058 more rows

vornamen |> 
    distinct(vorname)

# A tibble: 65,401 × 1
   vorname 
   <chr>   
 1 Olivier 
 2 Florian 
 3 Max     
 4 Albert  
 5 Co      
 6 Julian  
 7 Victor  
 8 Alfred  
 9 Valentin
10 Walter  
# ℹ 65,391 more rows
…
