Datenformen lang und breit & Daten zusammenfügen – rstatsZH - Data Science mit R
…
Zwei Variablen

# A tibble: 27 × 2
    Jahr Erdgas
   <dbl>  <dbl>
 1  1990   1.01
 2  1991   1.04
 3  1992   1.07
 4  1993   1.11
 5  1994   1.14
 6  1995   1.18
 7  1996   1.22
 8  1997   1.26
 9  1998   1.29
10  1999   1.32
# ℹ 17 more rows
…
Fehlende Daten ergänzen

professions |> 
  left_join(dates) |> 
  mutate(birth_year = case_when( 
    name == "Ada Lovelace" ~ 1815, 
    name == "Marie Curie" ~ 1867, 
    .default = birth_year
  ))

# A tibble: 10 × 4
  name              profession            birth_year death_year
  <chr>             <chr>                      <dbl>      <dbl>
1 Ada Lovelace      Mathematician               1815         NA
2 Marie Curie       Physicist and Chemist       1867         NA
3 Janaki Ammal      Botanist                    1897       1984
4 Chien-Shiung Wu   Physicist                   1912       1997
5 Katherine Johnson Mathematician               1918       2020
6 Rosalind Franklin Chemist                     1920       1958
7 Vera Rubin        Astronomer                  1928       2016
# ℹ 3 more rows
…
