Daten Import & Daten Management & Kollaboratives Arbeiten mit GitHub II – rstatsZH - Data Science mit R
…
readxl

read_excel() - liest xls oder xlsx Dateien

Daten aus CSV-Dateien lesen

Import von unbearbeiteten Rohdaten

befragung <- read_csv("raw/KTZH_00001341_00002759_frage7a1.csv")

. . .

befragung

# A tibble: 1,213 × 5
   geschlecht alter     gemeinde_groesse bezirk_name antwort          
   <chr>      <chr>     <chr>            <chr>       <chr>            
 1 weiblich   55 bis 59 Winterthur       Winterthur  viel zu hoch     
 2 männlich   70 bis 74 Winterthur       Winterthur  eher zu hoch     
 3 weiblich   55 bis 59 10001 bis 20000  Hinwil      eher zu hoch     
 4 weiblich   35 bis 39 20001 bis 50000  Hinwil      eher zu hoch     
 5 weiblich   50 bis 54 5001 bis 10000   Meilen      eher zu hoch     
 6 männlich   35 bis 39 <1000            Andelfingen gerade angemessen
 7 weiblich   45 bis 49 10001 bis 20000  Pfäffikon   viel zu hoch     
 8 männlich   30 bis 34 <1000            Winterthur  eher zu hoch     
 9 weiblich   50 bis 54 5001 bis 10000   Winterthur  eher zu hoch     
10 weiblich   80+       20001 bis 50000  Uster       eher zu hoch     
# ℹ 1,203 more rows
…
transformiere Daten

exportiere verarbeitete, analysereife Daten

antwort_levels <- c("viel zu hoch", "eher zu hoch", "gerade angemessen", 
                    "eher zu tief", "viel zu tief")

befragung_fct <- befragung |>
    mutate(antwort = factor(antwort, levels = antwort_levels)) 

. . .

befragung_fct

# A tibble: 1,213 × 5
   geschlecht alter     gemeinde_groesse bezirk_name antwort          
   <chr>      <chr>     <chr>            <chr>       <fct>            
 1 weiblich   55 bis 59 Winterthur       Winterthur  viel zu hoch     
 2 männlich   70 bis 74 Winterthur       Winterthur  eher zu hoch     
 3 weiblich   55 bis 59 10001 bis 20000  Hinwil      eher zu hoch     
 4 weiblich   35 bis 39 20001 bis 50000  Hinwil      eher zu hoch     
 5 weiblich   50 bis 54 5001 bis 10000   Meilen      eher zu hoch     
 6 männlich   35 bis 39 <1000            Andelfingen gerade angemessen
 7 weiblich   45 bis 49 10001 bis 20000  Pfäffikon   viel zu hoch     
 8 männlich   30 bis 34 <1000            Winterthur  eher zu hoch     
 9 weiblich   50 bis 54 5001 bis 10000   Winterthur  eher zu hoch     
10 weiblich   80+       20001 bis 50000  Uster       eher zu hoch     
# ℹ 1,203 more rows
…
Was ist aus unserem Faktor geworden?

befragung_fct <- read_csv("daten/processed/ktzh-befragung-zufriedenheit.csv")

Rows: 1213 Columns: 5
── Column specification ────────────────────────────────────────────────────────
Delimiter: ","
chr (5): geschlecht, alter, gemeinde_groesse, bezirk_name, antwort

ℹ Use `spec()` to retrieve the full column specification for this data.
ℹ Specify the column types or set `show_col_types = FALSE` to quiet this message.

befragung_fct

# A tibble: 1,213 × 5
   geschlecht alter     gemeinde_groesse bezirk_name antwort          
   <chr>      <chr>     <chr>            <chr>       <chr>            
 1 weiblich   55 bis 59 Winterthur       Winterthur  viel zu hoch     
 2 männlich   70 bis 74 Winterthur       Winterthur  eher zu hoch     
 3 weiblich   55 bis 59 10001 bis 20000  Hinwil      eher zu hoch     
 4 weiblich   35 bis 39 20001 bis 50000  Hinwil      eher zu hoch     
 5 weiblich   50 bis 54 5001 bis 10000   Meilen      eher zu hoch     
 6 männlich   35 bis 39 <1000            Andelfingen gerade angemessen
 7 weiblich   45 bis 49 10001 bis 20000  Pfäffikon   viel zu hoch     
 8 männlich   30 bis 34 <1000            Winterthur  eher zu hoch     
 9 weiblich   50 bis 54 5001 bis 10000   Winterthur  eher zu hoch     
10 weiblich   80+       20001 bis 50000  Uster       eher zu hoch     
# ℹ 1,203 more rows
…
write_rds(befragung_fct, "folien/daten/processed/ktzh-befragung-zufriedenheit.rds")

. . .

befragung_rds <- read_rds("daten/processed/ktzh-befragung-zufriedenheit.rds")

write_rds(befragung_fct, 
          here::here("folien/daten/processed/ktzh-befragung-zufriedenheit.rds"))

befragung_rds <- read_rds(
    here::here("folien/daten/processed/ktzh-befragung-zufriedenheit.rds"))

befragung_rds

# A tibble: 1,213 × 5
   geschlecht alter     gemeinde_groesse bezirk_name antwort          
   <chr>      <chr>     <chr>            <chr>       <fct>            
 1 weiblich   55 bis 59 Winterthur       Winterthur  viel zu hoch     
 2 männlich   70 bis 74 Winterthur       Winterthur  eher zu hoch     
 3 weiblich   55 bis 59 10001 bis 20000  Hinwil      eher zu hoch     
 4 weiblich   35 bis 39 20001 bis 50000  Hinwil      eher zu hoch     
 5 weiblich   50 bis 54 5001 bis 10000   Meilen      eher zu hoch     
 6 männlich   35 bis 39 <1000            Andelfingen gerade angemessen
 7 weiblich   45 bis 49 10001 bis 20000  Pfäffikon   viel zu hoch     
 8 männlich   30 bis 34 <1000            Winterthur  eher zu hoch     
 9 weiblich   50 bis 54 5001 bis 10000   Winterthur  eher zu hoch     
10 weiblich   80+       20001 bis 50000  Uster       eher zu hoch     
# ℹ 1,203 more rows
Daten zusammenfassen

für eine Visualisierung oder Tabelle in einer veröffentlichten Arbeit

befragung_sum_alter <- befragung_rds |> 
    group_by(alter, antwort) |> 
    summarise(antwort_anzahl = n()) |> 
    mutate(antwort_prozent = antwort_anzahl / sum(antwort_anzahl) * 100)

`summarise()` has grouped output by 'alter'. You can override using the
`.groups` argument.

befragung_sum_alter

# A tibble: 52 × 4
# Groups:   alter [13]
   alter     antwort           antwort_anzahl antwort_prozent
   <chr>     <fct>                      <int>           <dbl>
 1 18 bis 24 viel zu hoch                  12           18.2 
 2 18 bis 24 eher zu hoch                  24           36.4 
 3 18 bis 24 gerade angemessen             29           43.9 
 4 18 bis 24 viel zu tief                   1            1.52
 5 25 bis 29 viel zu hoch                  15           25   
 6 25 bis 29 eher zu hoch                  20           33.3 
 7 25 bis 29 gerade angemessen             23           38.3 
 8 25 bis 29 eher zu tief                   2            3.33
 9 30 bis 34 viel zu hoch                   9           14.1 
10 30 bis 34 eher zu hoch                  25           39.1 
# ℹ 42 more rows
…
