Funktionen schreiben & Parameterisierung von Berichten – rstatsZH - Data Science mit R
…
inline code macht es möglich R code direkt in Text einzubetten

Lernende im Jahr `r params$jahr` ...

… wird zu: Lernende im Jahr 2022

Parameter in Quarto Dokumenten

Parameter werden folgendermassen im Code angegeben:

lernende_ktzh |> 
    filter(jahr == params$jahr)

# A tibble: 110 × 10
   stand      kanton  jahr stufe        schultyp geschlecht staatsangehoerigkeit
   <date>     <chr>  <dbl> <chr>        <chr>    <chr>      <chr>               
 1 2025-01-13 zh      2022 Primarstufe… Regelsc… weiblich   Schweiz             
 2 2025-01-13 zh      2022 Primarstufe… Regelsc… weiblich   Ausland             
 3 2025-01-13 zh      2022 Primarstufe… Regelsc… weiblich   Schweiz             
 4 2025-01-13 zh      2022 Primarstufe… Regelsc… weiblich   Ausland             
 5 2025-01-13 zh      2022 Primarstufe… Regelsc… männlich   Schweiz             
 6 2025-01-13 zh      2022 Primarstufe… Regelsc… männlich   Ausland             
 7 2025-01-13 zh      2022 Primarstufe… Regelsc… männlich   Schweiz             
 8 2025-01-13 zh      2022 Primarstufe… Regelsc… männlich   Ausland             
 9 2025-01-13 zh      2022 Primarstufe… Heim- u… weiblich   Schweiz             
10 2025-01-13 zh      2022 Primarstufe… Heim- u… weiblich   Ausland             
# ℹ 100 more rows
# ℹ 3 more variables: traegerschaft <chr>, finanzierung <chr>, anzahl <dbl>
…
